num;d;D;B;C;C_0;
NU202;15;35;11;12,5;10,2;
NU203;17;40;12;17,2;14,3;
NU2203;17;40;16;23,8;21,6;
NU303;17;47;14;24,6;20,4;
NU204;20;47;14;25,1;25,2;
NU2204;20;47;18;29,7;27,5;
NU304;20;52;15;35,5;26;
NU205;25;52;15;28,6;27;
NU2205;25;52;18;34,1;34;
NU305;25;62;17;46,5;36,5;
NU206;30;62;16;44;36,5;
NU2206;30;62;20;55;49;
NU306;30;72;19;58,5;48;
NU207;35;72;17;56;48;
NU2207;35;72;23;69,5;63;
NU307;35;80;21;75;63;
NU208;40;80;18;62;53;
NU2208;40;80;23;81,5;75;
NU308;40;90;23;93;78;
NU2308;40;90;33;129;120;
NU209;45;85;19;69,5;64;
NU2209;45;85;23;85;81,5;
NU309;45;100;25;112;100;
NU2309;45;100;36;160;153;
NU210;50;90;20;73,5;69,5;
NU2210;50;90;23;90;88;
NU310;50;110;27;127;112;
NU2310;50;110;40;186;186;
NU211;55;100;21;96,5;95;
NU2211;55;100;25;114;118;
NU311;55;120;29;156;143;
NU2311;55;120;43;232;232;
NU212;60;110;22;108;102;
NU2212;60;110;28;146;253;
NU312;60;130;31;173;160;
NU2312;60;130;46;260;265;
NU213;65;120;23;122;118;
NU2213;65;120;31;170;180;
NU313;65;140;33;212;196;
NU2313;65;140;48;285;290;
NU214;70;125;24;137;137;
NU2214;70;125;31;180;193;
NU314;70;150;35;236;228;
NU2314;70;150;51;315;325;